{
    "openmw-mods": {
        "enabled": 1,
        "hidden": false,
        "nixexprinput": "portmod-hydra-check",
        "nixexprpath": "hydra_jobs.nix",
        "checkinterval": 600,
        "schedulingshares": 100,
        "enableemail": false,
        "emailoverride": "",
        "keepnr": 5,
        "inputs": {
            "portmod-hydra-check": {
                "type": "git",
                "value": "https://gitlab.com/marius851000/portmod-hydra-check.git",
                "emailresponsible": false
            },
            "python": {
                "type": "git",
                "value": "https://gitlab.com/portmod/python.git trunk",
                "emailresponsible": false
            },
            "meta": {
                "type": "git",
                "value": "https://gitlab.com/portmod/meta.git",
                "emailresponsible": false
            },
            "openmw-mods": {
                "type": "git",
                "value": "https://gitlab.com/portmod/openmw-mods.git",
                "emailoverride": false
            }
        }
    },
    "openmw-mods-sources": {
        "enabled": 1,
        "hidden": false,
        "nixexprinput": "portmod-hydra-check",
        "nixexprpath": "hydra_jobs_source.nix",
        "checkinterval": 3600,
        "schedulingshares": 100,
        "enableemail": false,
        "emailoverride": "",
        "keepnr": 5,
        "inputs": {
            "portmod-hydra-check": {
                "type": "git",
                "value": "https://gitlab.com/marius851000/portmod-hydra-check.git",
                "emailresponsible": false
            },
            "python": {
                "type": "git",
                "value": "https://gitlab.com/portmod/python.git trunk",
                "emailresponsible": false
            },
            "meta": {
                "type": "git",
                "value": "https://gitlab.com/portmod/meta.git",
                "emailresponsible": false
            },
            "openmw-mods": {
                "type": "git",
                "value": "https://gitlab.com/portmod/openmw-mods.git",
                "emailoverride": false
            }
        }
    }
}